{
  "serverID": "803399148237488128",
  "categories": [
    {
      "name": "Roles",
      "description": "This server is a damn mess...",
      "roles": [
        "803403718648791041",
        "807348204843696160",
        "821173624965693490",
        "821173754783727619",
        "821173837835796490",
        "821173928801599540",
        "821210282545774644",
        "824987046505611314",
        "825033417204826122",
        "825036442820018186",
        "825036565407203379",
        "825037442615738419",
        "825039114600185868",
        "825071387004633119",
        "825090079792824368",
        "825092221736714270",
        "825093878243000320",
        "825199165238804501",
        "825199209854664764",
        "825199349059158037",
        "825219327489081356",
        "825502759301677106",
        "825582071644684330",
        "825904464408870933",
        "825921389047316500",
        "826091903103401984",
        "826522240346488913",
        "826522521146359848",
        "826554501577048074",
        "826555566376615936",
        "826556459197136896",
        "826566720831094835",
        "826586979788521492",
        "826665166015692820",
        "827187951250440213",
        "827250601347121162",
        "827730412624543744",
        "827733126427312180",
        "827892199227785218",
        "827971126231433267",
        "828376473772752896",
        "828684080760881162",
        "829140873987489795",
        "829208234400153601",
        "829361813656436806",
        "829430731464900668",
        "829780683438030929",
        "830323619774726174",
        "830621300153516042",
        "830973735354892359",
        "831228168685879366",
        "831661610342023168",
        "832372086756212736",
        "833197363186892827",
        "833198052256776242",
        "834772415963594753",
        "836715287021224026",
        "836774915231318046",
        "838153201575264347",
        "839190704243736636",
        "839995200596475935",
        "843557944264097812",
        "843562518626041908",
        "843563196471836673",
        "847362191686238208",
        "851615790674739210",
        "851998568302510080",
        "852643223872340038",
        "856608874610163822",
        "857374532812406786",
        "858173091162882068",
        "862773167125823518",
        "864154383805579284",
        "864953531345534997",
        "865679538515083284",
        "865699560897773578",
        "868550942184865853",
        "869637822548688907",
        "876321790002090025",
        "876321965147840512",
        "882816179935248475",
        "884065223810642021",
        "884065365208997888",
        "900889221294866443",
        "909894501001216010",
        "914344647940268074",
        "915458246758764554",
        "924759279540531240",
        "940318405876138034",
        "948819753605160960",
        "954030776364728360",
        "961617858549395526",
        "961618011830231081",
        "962199678307434557",
        "962199684456271953",
        "968345517539065876",
        "968345638230188062"
      ]
    }
  ]
}
